{
    "name": "Beyond-HD",
    "url": "https://beyond-hd.me",
    "upload_form": "https://beyond-hd.me/api/upload/{api_key}",
    "torrents_search": "https://beyond-hd.me/api/torrents/{api_key}",
    "source": "bhd",
    "platform": "UNIT3D",
    "bbcode_line_break": "[br][/br]",
    "title_separator": " ",

    "description_components":{
        "code_code": "[code][/code]",
        "spoiler_code":"[spoiler=TITLE_PLACEHOLDER][/spoiler]",
        "notes_code":"[note][/note]",
        "quote_code":"[quote][/quote]",
        "alert_code":"[alert][/alert]"
    },

    "technical_jargons": {
        "authentication_mode": "API_KEY",
        "payload_type": "MULTI-PART"
    },

    "hybrid_mappings": {
    },

    "translation": {
        "dot_torrent": "file",
        "torrent_title": "name",
        "description": "description",
        "mediainfo": "mediainfo",
        "bdinfo": "bdinfo",
        "type": "category_id",
        "source": "source",
        "resolution": "type",
        "tmdb": "tmdb_id",
        "imdb": "imdb_id",
        "anon": "anon",
        "live": "live",
        "sd": "sd",
        "tvdb": "tvdb",
        "mal": "mal",
        "igdb": "igdb",
        "optimized": "stream",
        "nfo_file": "nfo_file",
        "complete_season": "pack",
        "season_number": "season_number",
        "episode_number": "episode_number",
        "tags":"tags"
    },

    "Required": {
        "file": "file",
        "name": "string",
        "description": "string",
        "live": "string",
        "anon": "string",

        "category_id": {
            "1": "movie",
            "2": "episode"
        },

        "type": {

            "UHD 100": {
                "bluray_disc": 1,
                "2160p": 1,
                "uhd_100": 1
            },

            "UHD 66": {
                "bluray_disc": 1,
                "2160p": 1,
                "uhd_66": 1
            },

            "UHD 50": {
                "bluray_disc": 1,
                "2160p": 1,
                "uhd_50": 1
            },

            "BD 50": {
                "bluray_disc": 1,
                "bd_50": 1,
                "1080p": 2,
                "1080i": 2

            },

            "BD 25": {
                "bluray_disc": 1,
                "bd_25": 1,
                "1080p": 2,
                "1080i": 2
            },

            "UHD Remux": {
                "bluray_remux": 1,
                "2160p": 1
            },

            "BD Remux": {
                "bluray_remux": 1,
                "1080p": 2,
                "1080i": 2
            },

            "2160p": {
                "2160p": 1,
                "bluray_encode": 2,
                "webdl": 2,
                "webrip": 2
            },

            "1080p": {
                "1080p": 1,
                "bluray_encode": 2,
                "webdl": 2,
                "webrip": 2
            },

            "1080i": {
                "1080i": 1,
                "bluray_encode": 2,
                "webdl": 2,
                "webrip": 2
            },

            "720p": {
                "720p": 1,
                "bluray_encode": 2,
                "webdl": 2,
                "webrip": 2
            },

            "576p": {
                "576p": 1,
                "webdl": 1
            },

            "540p": {
                "540p": 1,
                "webdl": 1
            },

            "DVD Remux": {
                "dvd": 1,
                "576p": 2,
                "540p": 2,
                "480p": 2
            },

            "480p": {
                "480p": 1,
                "webdl": 1
            },

            "Other": {
                "other": 0
            }
        },

        "source": {
            "Blu-ray": {
                "bluray": 1,
                "disc": 2,
                "remux": 2,
                "encode": 2
            },

            "HD-DVD": {
                "?": 1
            },

            "WEB": {
                "web": 1,
                "webrip": 2,
                "webdl": 2
            },

            "HDTV": {
                "hdtv": 1
            },

            "DVD": {
                "dvd": 1,
                "dvd_disc": 2,
                "dvd_remux": 2
            }
        },
        "imdb_id": "string",
        "tmdb_id": "string"
    },

    "Optional": {
        "edition": [
            "Collector",
            "Director",
            "Extended",
            "Limited",
            "Special",
            "Theatrical",
            "Uncut",
            "Unrated"
        ],
        "custom_edition": "string",
        "region": [
            "AUS",
            "CAN",
            "CEE",
            "CHN",
            "ESP",
            "EUR",
            "FRA",
            "GBR",
            "GER",
            "HKG",
            "ITA",
            "JPN",
            "KOR",
            "NOR",
            "NLD",
            "RUS",
            "TWN",
            "USA"
        ],
        "tags": {
            "type" : "string",
            "tags": [
                "Commentary",
                "2in1",
                "Hybrid",
                "OpenMatte",
                "2D3D",
                "WEBRip",
                "WEBDL",
                "3D",
                "4kRemaster",
                "DualAudio",
                "EnglishDub",
                "Personal",
                "Scene",
                "DigitalExtras",
                "Extras"
            ]
        },
        "nfo": "string",
        "nfo_file": "file",
        "pack": "string",
        "special": "int",
        "sd": "string",
        "season_number": "string",
        "episode_number": "string",

        "mediainfo": "file",
        "bdinfo": "string"
    },

    "Default":{},

    "dupes": {
        "technical_jargons": {
            "authentication_mode": "API_KEY",
            "payload_type": "MULTI-PART",
            "request_method": "POST"
        },

        "strip_text": true,

        "_comments" : {
            "payload" : "payload is the json data that needs to be sent to tracker",
            "_payload" : "payload must be a valid json with single quotes",
            "formatting" : "content to be replaced must be enclosed with <>"
        },

        "payload":"{\"action\" : \"search\", \"imdb_id\":\"<imdb>\"}",

        "keys": {
            "action": "search",
            "imdb_id": "string"
        },

        "parse_json": {
            "is_needed": true,
            "top_lvl": "results"
        },

        "different_cuts": "100",
        "2160p_remux": 1,
        "2160p_encode": 1,
        "1080p_remux": 1,
        "1080p_encode": 2,
        "720p_encode": 1,
        "else": 1
    },

    "torrent_title_format": {
        "episode": {
            "bluray_disc": "{title} {year} {s00e00} {screen_size} {region} {source} {dv} {hdr} {video_codec} {audio_codec} {audio_channels} {atmos} {release_group}",
            "bluray_remux": "{title} {year} {s00e00} {repack} {screen_size} {uhd} {hybrid} {source} {remux} {dv} {hdr} {video_codec} {audio_codec} {audio_channels} {atmos} {release_group}",
            "bluray_encode": "{title} {year} {s00e00} {repack} {screen_size} {uhd} {hybrid} {source} {audio_codec} {audio_channels} {atmos} {dv} {hdr} {video_codec} {release_group}",
            "web": "{title} {year} {s00e00} {repack} {episode_title} {screen_size} {web_source} {web_type} {audio_codec} {audio_channels} {atmos} {dv} {hdr} {video_codec} {release_group}",
            "hdtv": "{title} {year} {s00e00} {repack} {screen_size} {episode_title} {hybrid} {source} {audio_codec} {audio_channels} {video_codec} {release_group}",
            "dvd": "{title} {year} {s00e00} {edition} {repack} {screen_size} {region} {hybrid} {source} {video_codec} {remux} {audio_codec} {audio_channels} {atmos} {release_group}"
        },

        "movie": {
            "bluray_disc": "{title} {year} {edition} {repack} {source} {screen_size} {region} {dv} {hdr} {video_codec} {audio_codec} {audio_channels} {atmos} {release_group}",
            "bluray_remux": "{title} {year} {edition} {repack} {source} {screen_size} {uhd} {hybrid} {dv} {hdr} {audio_codec} {audio_channels} {atmos} {video_codec} {remux} {release_group}",
            "bluray_encode": "{title} {year} {edition} {repack} {source} {screen_size} {uhd} {hybrid} {audio_codec} {audio_channels} {atmos} {dv} {hdr} {video_codec} {release_group}",
            "web": "{title} {year} {edition} {repack} {web_source} {web_type} {screen_size} {hybrid} {audio_codec} {audio_channels} {atmos} {dv} {hdr} {video_codec} {release_group}",
            "hdtv": "{title} {year} {edition} {repack} {source} {screen_size} {hybrid} {audio_codec} {audio_channels} {atmos} {video_codec} {release_group}",
            "dvd": "{title} {year} {edition} {repack} {source} {screen_size} {region} {hybrid} {video_codec} {remux} {audio_codec} {audio_channels} {atmos} {release_group}"
        }
    },

    "banned_groups": [
        "x0r",
        "nikt0",
        "FGT",
        "d3g",
        "MeGusta",
        "d3g",
        "YIFY",
        "tigole",
        "TEKNO3D",
        "C4K"
    ]
}