{
    "name": "<TRACKER_NAME>",
    "url": "<HTTPS://DOMAIN.COM>",
    "upload_form": "<HTTPS://DOMAIN.COM/API/UPLOAD/>{api_key}",
    "torrents_search": "<HTTPS://DOMAIN.COM/API/TORRENTS/>{api_key}",
    "source": "<TRACKER_ACRONYM>",
    "platform": "UNIT3D | XBTIT",
    "bbcode_line_break": "|  [br][/br]  |  OR  |  <br />  |  (Check which one works)  ",
    "title_separator": "<Separator to be used in the torrent tile name. Eg: `.`[DOT] , ` `[SPACE] etc etc >",

    "description_components":{
        "code_code": "[code][/code]",
        "spoiler_code":"[spoiler=TITLE_PLACEHOLDER][/spoiler]",
        "notes_code":"[note][/note]",
        "quote_code":"[quote][/quote]",
        "alert_code":"[alert][/alert]"
    },

    "technical_jargons": {
        "authentication_mode": "API_KEY | BEARER",
        "payload_type": "MULTI-PART | JSON"
    },

    "hybrid_mappings": {
        "hybrid_type_translation_tracker_key":{
            "required": false,
            "prerequisite": [
                "list of tracker keys",
                "that must be resolved/translated",
                "before hybrid mapping can be done for this key"
            ],
            "mapping": {
                "tracker_required_key_1": {
                    "required_key_category_id": ["required ids"],
                    "required_key_resolution": ["required ids"],
                    "required_key_type_id": ["required ids"]
                }
            }
        }
    },

    "translation": {
        "dot_torrent": "<required_key_file>",
        "torrent_title": "<required_key_name>",
        "description": "<required_key_description>",
        "mediainfo": "<required_key_mediainfo>",
        "bdinfo": "<required_key_bdinfo>",
        "type": "<required_key_category_id>",
        "source": "<required_key_type_id>",
        "resolution": "<required_key_resolution>",
        "shameless_self_promotion": "<do_i_need_to_explain>",
        "url_images": "<list_of_screenshot_urls>",
        "hybrid_type": "<hybrid_type>",
        "tmdb": "<required_key_tmdb>",
        "imdb": "<required_key_imdb>",
        "anon": "<required_key_anon>",
        "live": "<required_key_live>",
        "tvdb": "<required_key>",
        "tvmaze": "<required_key>",
        "mal": "<required_key>",
        "igdb": "<required_key>",

        "season_number": "<Optional_key>",
        "episode_number": "<Optional_key>",
        "sd": "<Optional_key>",
        "optimized": "<Optional_key>",
        "nfo_file": "<Optional_key>",

        "internal": "internal",
        "featured": "featured",
        "doubleup": "doubleup",
        "tripleup": "tripleup",
        "sticky": "sticky",
        "freeleech": "free",
        "tags":"tags"
    },

    "Required": {
        "required_key_file": "file",
        "required_key_name": "string",
        "required_key_description": "string",
        "required_key_live": "string",
        "required_key_anon": "string",

        "required_key_category_id": {
            "1": "movie",
            "2": "episode"
        },

        "required_key_resolution": {
            "tracker_required_key_2160p_remux": {
                "bluray_remux": 1,
                "2160p": 1
            },
            "tracker_required_key_1080p_remux": {
                "bluray_remux": 1,
                "1080p": 2,
                "1080i": 2
            },
            "tracker_required_key_2160p": {
                "2160p": 1,
                "bluray_encode": 2,
                "webdl": 2,
                "webrip": 2
            },
            "tracker_required_key_1080p": {
                "1080p": 1,
                "bluray_encode": 2,
                "webdl": 2,
                "webrip": 2
            },
            "tracker_required_key_1080i": {
                "1080i": 1,
                "bluray_encode": 2,
                "webdl": 2,
                "webrip": 2
            },
            "tracker_required_key_720p": {
                "720p": 1,
                "bluray_encode": 2,
                "webdl": 2,
                "webrip": 2
            },
            "tracker_required_key_576p": {
                "576p": 1,
                "webdl": 1
            },
            "tracker_required_key_540p": {
                "540p": 1,
                "webdl": 1
            },
            "tracker_required_key_dvd_remux": {
                "dvd": 1,
                "576p": 2,
                "540p": 2,
                "480p": 2
            },
            "tracker_required_key_480p": {
                "480p": 1,
                "webdl": 1
            },
            "tracker_required_key_Other": {
                "other": 0
            }
        },

        "required_key_type_id": {
            "Blu-ray": {
                "bluray": 1,
                "disc": 2,
                "remux": 2,
                "encode": 2
            },
            "HD-DVD": {
                "?": 1
            },
            "WEB": {
                "web": 1,
                "webrip": 2,
                "webdl": 2
            },
            "HDTV": {
                "hdtv": 1
            },
            "DVD": {
                "dvd": 1
            }
        },
        "required_key_imdb": "string",
        "required_key_tmdb": "string"
    },

    "Optional": {
        "edition": [
            "Collector",
            "Director",
            "Extended",
            "Limited",
            "Special",
            "Theatrical",
            "Uncut",
            "Unrated"
        ],
        "custom_edition": "string",
        "region": [
            "AUS",
            "CAN",
            "CEE",
            "CHN",
            "ESP",
            "EUR",
            "FRA",
            "GBR",
            "GER",
            "HKG",
            "ITA",
            "JPN",
            "KOR",
            "NOR",
            "NLD",
            "RUS",
            "TWN",
            "USA"
        ],
        "tags": {
            "type" : "string",
            "tags": [
                "Commentary",
                "2in1",
                "Hybrid",
                "OpenMatte",
                "2D3D",
                "WEBRip",
                "WEBDL",
                "3D",
                "4kRemaster",
                "DualAudio",
                "EnglishDub",
                "Personal",
                "Scene",
                "DigitalExtras",
                "Extras"
            ]
        },
        "nfo": "string",
        "nfo_file": "file",
        "pack": "int",
        "special": "int",
        "sd": "int",
        "season_number": "string",
        "episode_number": "string",

        "optional_key_mediainfo": "file",
        "optional_key_bdinfo": "string"
    },

    "Default":{},

    "dupes": {
        "request": "GET",
        "url_format": "{search_url}&imdbId={imdb}",
        "strip_text": true,

        "parse_json": {
            "is_needed": true,
            "top_lvl": "data",
            "torrent_details": "attributes"
        },
        "payload":"{\"search\":\"<imdb>\"}",
        "payload_type": "MULTI-PART",

        "different_cuts": "100",
        "2160p_remux": 1,
        "2160p_encode": 1,
        "1080p_remux": 1,
        "1080p_encode": 2,
        "720p_encode": 1,
        "else": 1
    },

    "torrent_title_format": {
        "episode": {
            "bluray_disc": "{title} {year} {s00e00} {screen_size} {region} {source} {dv} {hdr} {video_codec} {audio_codec} {audio_channels} {atmos} {release_group}",
            "bluray_remux": "{title} {year} {s00e00} {repack} {screen_size} {uhd} {hybrid} {source} {remux} {dv} {hdr} {video_codec} {audio_codec} {audio_channels} {atmos} {release_group}",
            "bluray_encode": "{title} {year} {s00e00} {repack} {screen_size} {uhd} {hybrid} {source} {audio_codec} {audio_channels} {atmos} {dv} {hdr} {video_codec} {release_group}",
            "web": "{title} {year} {s00e00} {repack} {screen_size} {web_source} {web_type} {audio_codec} {audio_channels} {atmos} {dv} {hdr} {video_codec} {release_group}",
            "hdtv": "{title} {year} {s00e00} {repack} {screen_size} {hybrid} {source} {audio_codec} {audio_channels} {video_codec} {release_group}",
            "dvd": "{title} {year} {s00e00} {edition} {repack} {screen_size} {region} {hybrid} {source} {video_codec} {remux} {audio_codec} {audio_channels} {atmos} {release_group}"
        },

        "movie": {
            "bluray_disc": "{title} {year} {edition} {repack} {screen_size} {region} {source} {dv} {hdr} {video_codec} {audio_codec} {audio_channels} {atmos} {release_group}",
            "bluray_remux": "{title} {year} {edition} {repack} {screen_size} {uhd} {hybrid} {source} {remux} {dv} {hdr} {video_codec} {audio_codec} {audio_channels} {atmos} {release_group}",
            "bluray_encode": "{title} {year} {edition} {repack} {screen_size} {uhd} {hybrid} {source} {audio_codec} {audio_channels} {atmos} {dv} {hdr} {video_codec} {release_group}",
            "web": "{title} {year} {edition} {repack} {screen_size} {hybrid} {web_source} {web_type} {audio_codec} {audio_channels} {atmos} {dv} {hdr} {video_codec} {release_group}",
            "hdtv": "{title} {year} {edition} {repack} {screen_size} {hybrid} {source} {audio_codec} {audio_channels} {atmos} {video_codec} {release_group}",
            "dvd": "{title} {year} {edition} {repack} {screen_size} {region} {hybrid} {source} {video_codec} {remux} {audio_codec} {audio_channels} {atmos} {release_group}"
        }
    },

    "banned_groups": [
        "group_1_optional",
        "group_2_optional"
    ]
}